hw5.utf8.md
…
Find the daily sales liquor sales in Ames in 2019. Summarize the number of sales, volume of liquor sold, and amount of money spent.

clean4 <- clean %>% 
  group_by(month, day) %>% 
  summarise(`Total Sales`=n(), `Volume` = sum(`Volume Sold (Liters)`), `Money Spent` = sum(`Sale (Dollars)`))

clean4

## # A tibble: 157 x 5
## # Groups:   month [12]
##    month day   `Total Sales` Volume `Money Spent`
##    <chr> <chr>         <int>  <dbl>         <dbl>
##  1 01    03              957  6816.       112009.
##  2 01    04              143  1256.        16766.
##  3 01    09              944  6732.        99703.
##  4 01    10                2   135          1457.
##  5 01    11              177  1205.        16481.
##  6 01    16              912  8227.       118597.
##  7 01    18               62   232.         4483.
##  8 01    24             1221  9239.       139658.
##  9 01    25              253  2329.        31893.
## 10 01    30             1082  8752.       127225.
## #  with 147 more rows
…
